{
   "SourceSystem": "ADR001",
   "TransactionType": "REPLENISH",
   "TrayNumber": "1",
   "ItemNumber": "123:456:P",
   "Stones": [
      {
         "XCoordinate": "1",
         "YCoordinate": "1",     
         "Diameter": "0.98"
      },
      {
         "XCoordinate": "1",
         "YCoordinate": "1",
         "Diameter": "0.98"
      }
   ]
}